{
    "response": [
        {
            "datetime": 1631811573,
            "filename": "lineage_laurel_sprout-ota-eng.arru.zip",
            "id": "913a10d47b862031f1c8f38787ee1f82",
            "romtype": "UNOFFICIAL",
            "size": 916452484,
            "url": "https://github.com/MasterAwesome/android_device_xiaomi_laurel_sprout/releases/download/v11.0.0/lineage_laurel_sprout-ota-eng.arru.zip",
            "version": "18.1"
        }
    ]
}